Comunidades Microbianas en zonas termales
…
paleta = colorRampPalette(brewer.pal(12, "Paired"))
getPalette = colorRampPalette(brewer.pal(12, "Paired"))

# Grfico 3 especies ms frecuentes
espMasFrecuentes <- especies |>
                      group_by(muestra) |>
                      arrange(desc(fragmentos_asignados)) |>        # Ordenar el dataframe de forma descendente por la columna x
                        slice_head(n = 3)   
espMasFrecuentes

## # A tibble: 24 x 8
## # Groups:   muestra [8]
##    porcentaje_fragmentos~1 canti~2 fragm~3 codig~4 NCBI_id nombr~5 sitio muestra
##                      <dbl>   <int>   <int> <chr>   <chr>   <chr>   <fct> <fct>  
##  1                    0.4   160870  160870 S       1752063 Fische~ Volc~ Hornil~
##  2                    0.18   72459   72459 S       2601677 Tepidi~ Volc~ Hornil~
##  3                    0.03   12316   12316 S       376175  Schleg~ Volc~ Hornil~
##  4                    0       1294    1294 S       1752063 Fische~ Volc~ Rio Pe~
##  5                    0        546     546 S       34062   Moraxe~ Volc~ Rio Pe~
##  6                    0        228     228 S       703     Plesio~ Volc~ Rio Pe~
##  7                    0.13   61097   61097 S       1807358 Stanie~ Volc~ La Pal~
##  8                    0.12   55582   55582 S       1752063 Fische~ Volc~ La Pal~
##  9                    0       2118    2118 S       215580  Caldim~ Volc~ La Pal~
## 10                    1.51  538021  538021 S       1752063 Fische~ Volc~ La Pal~
## # ... with 14 more rows, and abbreviated variable names
## #   1: porcentaje_fragmentos_raiz, 2: cantidad_fragmentos_raiz,
## #   3: fragmentos_asignados, 4: codigo_rango, 5: nombre_cientifico
…
